,Perpetrator,Date,Year,Location,Country,Killed,Injured,W,Additional Notes,Ref.
1.,"Medana, Jose*",May,1891,Lomas de Zamora,Argentina,13,0,,,[2]
2.,"Ramos de Araujo, Sidnei, 46",Dec. 31,2016,Campinas,Brazil,12,3,F,Committed suicide,
3.,"Saeed Qashash, 19",June 10,1998,Amman,Jordan,12,0,F,Sentenced to death and executed,[3]
4.,Andangan*,Oct. 21,1921,Cotabato,Philippines,11,0,M,Committed suicide,[4]
5.,"Jalal Osman Khoja, 40*  (جلال عثمان خوجة)",Dec. 26,2000,Jeddah,Saudi Arabia,11,0,F,Committed suicide,[5]
6.,Abdul Emir Khalaf Sabhan*,Aug. 26,2003,Baghdad,Iraq,11,0,F,Committed suicide,[6]
7.,"Unknown, 26",Dec. 22,2016,Jhanabad,Iran,10,5,F,Arrested,[7]
8.,"Torres, Benito, 25*",Sep. 20,1938,Palma Soriano,Cuba,10,1,FMA,Committed suicide,[8]
9.,Berri Khan,Feb.,1914,Tripoli,Libya,10,0,MP,Committed suicide,[9]
10.,"Bartholomew, Clifford Cecil, 40*",Sep. 6,1971,"Hope Forest, South Australia",Australia,10,0,F,Sentenced to 20 years in prison,[10]
11.,Unknown*,Sep.,2009,Aden,Yemen,10,0,A,Committed suicide,[11]
12.,"Mukobero Muchika, Jamin, 43*",April 29,2001,Shibuye,Kenya,9,6,M,Arrested  Killed an unborn child,[12]
13.,"Chahal, Mark Vijay, 30",April 5,1996,"Vernon, British Columbia",Canada,9,2,F,Committed suicide,[13]
14.,"Taş, Yusuf, 25*",Feb. 4,2016,Gaziantep,Turkey,9,2,F,,[14]
15.,"Alvarez, Antonio*",Dec. 1,1923,Puebla,Mexico,9,0,M,Committed suicide,[15]
16.,"Silva, Maximiliano*",April,1943,Alegrete,Brazil,9,0,,Committed suicide,[16]
17.,"Sobhy Ibrahim Abdel-Alim, 42*  (صبحى إبراهيم عبد العليم)",July 19,2007,Minya Governorate,Egypt,8,3,F,Sentenced to death,[17]
18.,"Gaeta, Gregorio, 27",Oct.,1952,"Sariaya, Quezon",Philippines,8,1,,Arrested,[18]
19.,"Sovereign, Henry*",Jan. 21,1832,"Norfolk County, Upper Canada",British North America,8,0,MO,Sentenced to death and executed,[19]
20.,"Banks y Keena, Mateo, 49",April 18,1922,La Buena Suerte & El Trébol,Argentina,8,0,F,Sentenced to life imprisonment,[20]
21.,"Day, Andrew, 40*",Dec. 16,1929,"Trois-Rivières, Quebec",Canada,8,0,M,Found mentally unfit to stand trial,[21]
22.,"Kasoma, Christopher, 43*",April 27,2004,Nsangi,Uganda,8,0,M,Committed suicide  Killed two unborn children,[22]
23.,"Yüksel, Murat, 38*",June 2,2009,Adana,Turkey,8,0,F,Arrested,[23]
24.,"Thaiday, Raina Mersane Ina, 34",Dec. 18–19,2014,"Cairns, Queensland",Australia,8,0,M,Found mentally unfit to stand trial,
25.,"Lam, Phu, 53*",Dec. 29,2014,"Edmonton, Alberta",Canada,8,0,F,Committed suicide,[24]
26.,"Taşçı, Ömer, 48*",Sep. 9,2007,Karaadilli,Turkey,8,?,F,Sentenced to 80 years in prison,[25]
27.,Maria José*,Dec. 4,1951,Marcação,Brazil,7–12,0,P,Arrested,[26]
28.,Unknown*,March,1961,Cerro Azul,Brazil,7,3,P,Committed suicide,[27]
29.,Njenga Fundi,Oct. 26/27,1968,Mariani,Kenya,7,3,F P,Arrested,[28]
30.,"Ratima, Raymond Wahia, 25",June 26,1992,Masterton,New Zealand,7,2,M,Sentenced to life imprisonment  Killed an unborn child,[29]
31.,"Siboza, Elias, 60",Feb. 24,2000,Clau Clau,South Africa,7,2,F,Committed suicide,[30]
32.,"Huseynov, Rafig Muzaffar, 36",Oct. 1,2014,Goranboy,Azerbaijan,7,2,F  E,Sentenced to life imprisonment,[31]
33.,Ngah Ghafur,Dec. 14,1898,Bota,Malaysia,7,1,MA,Sentenced to death and executed,[32]
34.,"Nkoana, Clifford, 30*",Nov. 9,1996,Graaff-Reinet,South Africa,7,1,F A,Committed suicide,[33]
35.,"Herod, Raul, 36*",July 7,1999,Buxton,Guyana,7,1,F A,Committed suicide,[34]
36.,"Langobon, Jerry, 30*",Jan. 18,2002,Siayan,Philippines,7,1,M,Arrested,[35]
37.,"Laventure, Mathilde, 33*",July 20/21,1862,"Saint-Eusèbe-de-Stanfold, Canada East",Canada,7,0,M,Committed suicide,[36]
38.,"Lavera, Carmen, 34*",Oct. 31,1918,Camagüey,Cuba,7,0,,Killed numerous animals,[37]
39.,"Loweree, Elfren*",March 15,1926,Chihuahua,Mexico,7,0,M,Committed suicide,[38]
40.,"Jose de Souza, Apollinario",,1932,Rincão do Ferraz,Brazil,7,0,M,Committed suicide,[39]
41.,"Hreczkosy, Thomas, 28*",Jan. 29,1932,"Elma, Manitoba",Canada,7,0,MA,"Sentenced to death, later changed to life imprisonment",[40]
42.,"Shimizu, Mamoru",Nov. 2/3,1944,Lima,Peru,7,0,,Arrested,[41]
43.,"Lubbe, Pieter Albertus, 35",Jan. 10,1953,Fauresmith,South Africa,7,0,F,Committed suicide,[42]
44.,"Unknown, 17*",July,1953,Acıpayam,Turkey,7,0,M,Arrested,[43]
45.,"Clark, John Etter, 41",June 3,1956,"Erskine, Alberta",Canada,7,0,F,Committed suicide,[44]
46.,"Cook, Robert Raymond, 22*",June 25,1959,"Stettler, Alberta",Canada,7,0,FM,Sentenced to death and executed,
47.,"Ramirez Camacho, José Rosario*",June,1962,Las Comitas,Mexico,7,0,M,Sentenced to 37 years in prison,[45]
48.,"Sandoval Troncoso, Luis*",July,1963,Valdivia,Chile,7,0,MP,Committed suicide,[46]
49.,"Hogue, Leonard, 34*",April 20,1965,"Coquitlam, British Columbia",Canada,7,0,F,Committed suicide,[47]
50.,"Pagkay, Gardo, 25*",July 22,1968,Cotabato City,Philippines,7,0,M,Committed suicide,[48]
51.,Adão Vilnei Teixeira*,Dec. 10,1976,São Vincente,Brazil,7,0,MA,Arrested,[49]
52.,"Jooste, Johnny, 36*",Feb. 20,2000,Ceres,South Africa,7,0,F,Sentenced to 38 years,[50]
53.,"de Oliveira, José Valdir, 52*",Oct. 30,2000,São Paulo,Brazil,7,0,MA,Committed suicide,[51]
54.,"Byekwaso, Abdallah, 28*",Aug. 17,2007,Kiraba,Uganda,7,0,M,Committed suicide,[52]
55.,"Danışmaz, Hasan, 38*",Jan. 7,2008,Sürmene,Turkey,7,0,F,Sentenced to life imprisonment  Killed a truck driver in Dec. 2001,[53]
56.,"Saleh Mohammed, 43*  (صالح محمد)",Oct. 22,2009,الهلوم,Iraq,7,0,F,Attempted suicide,[54]
57.,Mohammad S.*,Jan. 31,2017,Faw Qibli,Egypt,7,0,F,Arrested,[55]
58.,"Kamili, Theophil, 52*",Sep. 28,2010,Barazani village,Tanzania,7,0,A,"Arrested  Killed a number of cattle, sheep and goats",[56]
59.,"Ladron de Guevara, Rafael, 40*",Jan. 13,1941,Buenos Aires,Argentina,7,?,MA,,[57]
60.,"Imam Mamat, 40",Feb. 11/13,1891,Pasir Garam,Malaysia,6,4,M,Killed  Killed two unborn children,[58]
61.,"Yang Tai Chong, 21*",March 6/7,1966,,Singapore,6,4,M,Found not guilty by reason of insanity,[59]
62.,"Ong Kok, 34*",Sep. 11,1930,Tampines,Singapore,6,2,M,Committed suicide,[60]
63.,"Bilodeau, Jean Rosaire, 45",Oct. 25,1934,"Quebec City, Quebec",Canada,6,2,F,Sentenced to death and executed,[61]
64.,"Silas Freire Cantor, 24*",October 25,2000,São Miguel Paulista,Brazil,6,2,M,"Arrested  Killed his cousin on July 20, 2000",[62]
65.,"Unknown, 16*",Oct.,1927,Zagazig,Egypt,6,1,P,Arrested,[63]
66.,"Angeles, Vicente, 31*",May 19,1957,Manila,Philippines,6,1,F,Committed suicide,[64]
67.,"Feher, Lios, 33*",Dec. 28,1969,Benoni,South Africa,6,1,F,Committed suicide,[65]
68.,"Macloud, Luis Antonio, 45^",Nov.,1991,Panama City,Panama,6,1,F,Committed suicide,[66]
69.,"Kapambe, Lemison, 22",June 3,2012,Pondani,Malawi,6,1,M,Killed by angry mob,[67]
70.,Swift Runner,,1878,Saskatchewan,Canada,6,0,FM,Sentenced to death and executed,
71.,"Thyer, Joseph, 44*",Oct. 11,1896,"Cavanagh, South Australia",Australia,6,0,M,Committed suicide,[68]
72.,"Glover, Catherine Mary, 34*",March 1,1898,"Triabunna, Tasmania",Australia,6,0,M,Committed suicide,[69]
73.,"Baxter, James Reid, 43*",April 8,1908,Invercargill,New Zealand,6,0,M,Committed suicide,[70]
74.,"McGee, Minnie*",April,1912,"Georgetown, Prince Edward Island",Canada,6,0,P,"Sentenced to death, later commuted to life imprisonment",[71]
75.,"Archer, Andrew Thomas Edgar, 49*",Feb. 26,1929,"Don, Tasmania",Australia,6,0,MA,Committed suicide,[72]
76.,"Davies, Roderick A., 36*",Aug. 21,1931,"Perth, Western Australia",Australia,6,0,F,Committed suicide,[73]
77.,"Basora Montejo, Santiago, 38*",April 24,1932,Güines,Cuba,6,0,MA,Committed suicide,[74]
78.,"Hall, Frederick Charles, 48*",July 2,1948,"Glen Innes, New South Wales",Australia,6,0,F,Sentenced to death,[75]
79.,"Armanasco, Raymond, 40*",Oct. 12,1950,"Perth, Western Australia",Australia,6,0,M,Sentenced to death,[76]
80.,"Ingunza, Juan, 46*",Jan. 1,1964,Pucallpa,Peru,6,0,,Committed suicide,[77]
81.,"Darnley, Herbert George*",May 5/6,1964,"Sydney, New South Wales",Australia,6,0,P,Committed suicide,[78]
82.,"Kosberg, Thomas Gordon, 17*",Dec. 10,1965,Vancouver,Canada,6,0,MP,Found not guilty by reason of insanity,[79]
83.,"Unknown, 30*",Dec. 24,1966,Santa Cruz,Philippines,6,0,M,Arrested,[80]
84.,"Klick, João, 56*",April 26,1970,Viamão,Brazil,6,0,MA,Arrested,[81]
85.,"Emidio da Silva, José*",March 7,1972,Cruzeta,Brazil,6,0,M,Sentenced to 30 years in prison,[82]
86.,"Garcia de Vasconcelos, Lindolfo*",Dec. 24,1973,Jaguari,Brazil,6,0,MA,,[83]
87.,"J. M., 45*",Jan. 2,1976,,Kenya,6,0,M,Arrested,[84]
88.,"Haripaul, Devakaparsaud, 32*",May 29,1980,Leonora,Guyana,6,0,M,Committed suicide,[85]
89.,"Blackman, Bruce Alfred, 22*",Jan. 18,1983,"Coquitlam, British Columbia",Canada,6,0,F,Found not guilty by reason of insanity,[86]
90.,"Dilber, Halil, 40*",Aug. 9,1986,Killar,Turkey,6,0,FM,Committed suicide,[87]
91.,"M'Maroo, William, 17",May 26,1988,Linjoka,Kenya,6,0,M,Died while trying to escape,[88]
92.,"Schlaepfer, Brian, 64*",May 20,1992,Pukekohe,New Zealand,6,0,FM,Committed suicide,[89]
93.,"Ram Chandar, 34*",Jan. 8,1994,Togomasi,Fiji,6,0,M,Sentenced to 120 years in prison,[90]
94.,"Aydın, Muammer, 26*",Dec. 2,1995,Evci,Turkey,6,0,FM,Committed suicide while awaiting trial,[91]
95.,"May, Peter, 32*",Jan. 25,1996,"Hillcrest, Queensland",Australia,6,0,F,Committed suicide,[92]
96,"Ricardo da Costa, Sebastião, 54",Feb. 19,2001,Itajuípe,Brazil,6,0,M,Committed suicide,[93]
97.,"Bauer, John, 51",Sep. 20,2001,"Kirkland, Quebec",Canada,6,0,F,Committed suicide,[94]
98.,"Handel, Jay, 45*",March 11,2002,"Quatsino, British Columbia",Canada,6,0,A,Sentenced to life imprisonment,[95]
99.,"van Heerden, Jacobus Johannes, 55*",Feb. 20,2007,Vanderbijlpark,South Africa,6,0,F,Committed suicide,[96]
100.,"Thokamolemo, Orelesitse Modise 26*",Jan.,2008,Letlhakane,Botswana,6,0,M,Sentenced to death and executed,[97]
101.,"I. N., 35",May 29,2008,Abu Alanda,Jordan,6,0,M,Sentenced to death,[98]
102.,"Unknown, 17*",May 7,2010,Essaouira,Iraq,6,0,F,Arrested,[99]
103.,"Rivas Roldan, Errol, 27*",Feb. 25,2012,Bulwang,Philippines,6,0,M,Arrested,[100]
104.,"Catoy, Pepito, 32*",April 8,2012,Panampalay,Philippines,6,0,M,Arrested,[101]
105.,"Mokhali, Tsepang Solomon, 21*",Dec.,2012,Inanda,South Africa,6,0,FM,Sentenced to six life terms,[102]
106.,"da Silva, Edson, 33*",May 2,2014,Coronel Sapucaia,Brazil,6,0,MA,Sentenced to 135 years in prison,[103]
107.,"Miles, Peter, 61*",May 11,2018,"Osmington, Western Australia",Australia,6,0,F,Committed suicide,[104]
108.,"Becerra, Bernardino, 34*",March,1938,Tototlán,Mexico,6,?,M,,[105]
109.,"Rachid Saad Kamaleddine, 34*",Feb.,1961,Baghdad,Iraq,6,?,,Arrested,[106]
110.,Unknown,June 17,2005,Kajiado,Kenya,6,?,,Arrested,[107]
111.,Unknown,,,Barracão,Brazil,6,?,F,,[108]
112.,"Karapetyants, ---",March 31,1907,Alexandropol,Armenia,2–7,0–5,M,Committed suicide,[109]
