,Perpetrator,Date,Year,Location,Country,Killed,Injured,W,Additional notes,Ref.
1.,"Paddock, Stephen Craig, 64",Oct. 1,2017,"Paradise, Nevada",U.S.,58,422,F,Committed suicide,[11]
2.,"Gonzales, Francisco Paula, 27",May 7,1964,"Danville, California",U.S.,43,0,F V,Committed suicide,
3.,"Burke, David Augustus, 35",Dec. 7,1987,"San Luis Obispo, California",U.S.,42,0,F V,Committed suicide or died in the crash,
4.,"Delgado Morales, Campo Elías, 52",Dec. 4,1986,Bogotá,Colombia,29,12,FMA,Killed by police,
5.,"Kelley, Devin Patrick, 26",Nov. 5,2017,"Sutherland Springs, Texas",U.S,25,20,F,Committed suicide  Killed an unborn child,
6.,"Hennard, George Pierre, 35",Oct. 16,1991,"Killeen, Texas",U.S.,23,27,F V,Committed suicide,
7.,"Huberty, James Oliver, 41",July 18,1984,"San Diego, California",U.S.,21,19,F,Killed by police  Killed an unborn child,
8.,"Ferreira de França, Genildo, 27",May 21/22,1997,Santo Antônio dos Barreiros,Brazil,14,1,F,Committed suicide,
9.,"Wong, Jiverly Antares, 41",April 3,2009,"Binghamton, New York",U.S.,13,4,F,Committed suicide,
10.,"Unruh, Howard Barton, 28",Sep 6,1949,"Camden, New Jersey",U.S.,13,3,F,Found mentally unfit to stand trial,
11.,"Holmes, James Eagan, 24",July 20,2012,"Aurora, Colorado",U.S.,12,62,F E,Sentenced to life imprisonment,
12.,"Lozano Velásquez, Juan de Jesús, 26",June 24,2000,Bogotá,Colombia,11,7,F,Sentenced to 40 years in prison,
13.,"Pough, James Edward, 42",June 17/18,1990,"Jacksonville, Florida",U.S.,11,6,F V,"Committed suicide  Killed a man on May 8, 1971",
14.,"Caceres, Gregorio, 50",Feb 18,1942,Trujillo,Venezuela,11,4,M,Killed,[12]
15.,"Muhammad, John Allen, 41  Malvo, Lee Boyd, 17",Sep. 23–Oct 22,2002,"Baton Rouge, LouisianaMarylandVirginiaWashington D.C.",U.S.,11,3,F,Muhammad sentenced to death and executedMalvo sentenced to life imprisonmentKilled six other people since Feb. 2002,
