,Name,Date,Year,Location,Country,Killed,Injured,Additional notes,Ref.
1.,Li Baoping  (李宝平),July 12,1983,Changde,China,21,29,Sentenced to death and executed,[2]
2.,Unknown,Aug.,1993,Kilifi,Kenya,18,25,Arrested,[3]
3.,"López, Pedro René Lorenzo, 28 (suspect)",March 27,2019,Nahualá,Guatemala,18,18+,Arrested,[4]
4.,"Abd al-Hadi Ghanim, 25",July 6,1989,Kiryat Ye'arim,Israel,16,27,Sentenced to 16 life sentences,
5.,Unknown,Oct. 9,1994,Djimenzen,Haiti,14,12+,,[5]
6.,Unknown,Dec.,1965,,Syria,14,2+,Arrested,[6]
7.,"Álvarez, Juan Manuel, 25",Jan. 26,2005,"Los Angeles, California",U.S.,11,177,Sentenced to life imprisonment,
8.,"Minassian, Alek, 25 (suspect)",April 23,2018,"Toronto, Ontario",Canada,10,16,Arrested,
9.,"Santosh Maruti Mane, 40  (संतोष मारुति माने)",Jan. 25,2012,Pune,India,9,27–37,Sentenced to death,[7]
10.,"Wu Yuansong, 40  (吴元松)",Jan.26 – Feb.21,1998,Putian,China,9,8,Sentenced to death and executed,[8]
11.,"Khalil Abu Olbeh, 35",Feb. 14,2001,Azor,Israel,8,26,Sentenced to eight life terms plus 21 years,[9]
12.,"Hepnarová, Olga, 22",July 10,1973,Prague,Czechoslovakia,8,12,Sentenced to death and executed,
13.,"Saipov, Sayfullo Habibullaevic, 29 (suspect)",Oct. 31,2017,"New York City, New York",U.S.,8,11,Arrested,
14.,"Unknown, 26",Oct.,1996,Hòa Bình,Vietnam,8,3,Committed suicide,[10]
15.,"Ford, Priscilla Joyce, 51",Nov. 27,1980,"Reno, Nevada",U.S.,7,22,Died while awaiting execution,
16.,"Lin Jianxin,  (林建新)",April 28,2014,Minhou,China,7,15,Sentenced to death,[11]
17.,"Tates, Karst Roeland, 38",April 30,2009,Apeldoorn,Netherlands,7,10,Died in the crash,
18.,"Liu ---, 45  (刘)",March 25,2016,Suzhou,China,6,34,Arrested,[12]
19.,Liu Danao  (刘大孬),June 1,2010,Zhengzhou City,China,6,20+,Sentenced to death,[13]
20.,"Takeuchi, Keisuke",July 15,1949,Mitaka,Japan,6,20,Died while awaiting execution,
21.,"Han Jihua, 29  (韩继华)",Nov. 22,2018,Huludao,China,6,17,Arrested,[14]
22.,"Tian Shengming, 44  (田胜明)",May 28,2012,Zhangjiajie,China,6,9,Arrested,[15]
23.,"Milhomem, Mauro",June 1,1980,Barra do Garças,Brazil,6,4,Died in the crash,[16]
24.,"Ji, 26",Aug. 19,2015,Weifang,China,5,21,Arrested,[17]
25.,"Yao Jinyun,  (姚锦云)",Jan. 10,1982,Beijing,China,5,19,Sentenced to death and executed,[18]
26.,"Luo Xiaoji, 34  (骆效计)",Nov. 5,2008,Zhuhai,China,5,19,Killed by police,[19]
27.,"Crabbe, Douglas John Edwin, 36",Aug. 18,1983,"Yulara, Northern Territory",Australia,5,16,Sentenced to life imprisonment,
28.,"Akilov, Rahmat, 39",April 7,2017,Stockholm,Sweden,5,15,Sentenced to life imprisonmentAlso killed a dog,
29.,"George, Leroy Valentino, 21",Jul. 10,1999,"Baton Rouge, Louisiana",U.S.,5,6,Convicted,[20]
30.,Li Chenggang,April 25,2011,Changsha,China,5,5,Sentenced to death,[21]
31.,"Chambers, Adacia Avery, 25",Oct. 24,2015,"Stillwater, Oklahoma",U.S.,4,46,Sentenced to life imprisonment,
32.,Unknown pilot,Aug. 26,2008,Trincomalee,Sri Lanka,4,35+,Escaped,
33.,"Owens, Rashad Charjuan, 21",March 12,2014,"Austin, Texas",U.S.,4,21,Sentenced to life imprisonment,
34.,"Rüther, Jens Alexander, 48",April 7,2018,Münster,Germany,4,20+,Committed suicide,
35.,"Hu Jiabing, 42  (胡家兵)",Jan. 19,2016,"Yichun, Jiangxi",China,4,18,Sentenced to death and executed,[22]
36.,"Fadi al-Qanbar, 28",Jan. 8,2017,"East Jerusalem, West Bank",Palestine,4,17,Killed by police,
37.,"Mohammed Faruz Abdallah, 33",Nov. 1,1970,Karachi,Pakistan,4,11,Sentenced to death,
38.,"Serkov, Vladimir Fedorovich, 23  (Серков, Владимир Федорович)",Sep. 26,1976,Novosibirsk,Soviet Union,4,11,Died in the crash,[23]
39.,"Bao, ---, 57  (包)",July 7,2017,Jingjiang,China,4,9,,[24]
40.,"Hussam Taysir Dwayat, 32",July 2,2008,Jerusalem,Israel,3,36,Killed by police,
41.,"Nguyễn Văn Cử, 28 Phạm Phú Quốc, 27",Feb. 27,1962,Saigon,South Vietnam,3,30,"Quốc arrested, Cử escaped",
42.,Unknown,Feb. 4,2001,Kampala,Uganda,3,21+,,[25]
43.,"Ho Chung-ming, 36",Aug. 30,1964,Taipei,Taiwan,3,20,Sentenced to death,[26]
44.,"Kabolowsky, Robert, 20",July 10,1980,"Wantagh, New York",U.S.,3,20,Found not guilty by reason of insanity,[27]
45.,Two unknown pilots,March 26,2007,Colombo,Sri Lanka,3,16–17,Escaped,
46.,"Ressa, Stephen Michael, 27",Sep. 21,2005,"Las Vegas, Nevada",U.S.,3,11,Sentenced to life imprisonment,[28]
47.,Two unknown pilots,Feb. 20,2009,Colombo,Sri Lanka,2,58,Died in the crashes,
48.,"Nieto Avila, Jose Luis, 56",May 6,2002,San Cristóbal Ecatepec,Mexico,2,22,Sentenced to 146 years in prison,[29]
49.,"Parkdel, Eric, 50",May 31,2003,Stockholm,Sweden,2,16,Convicted,[30]
50.,"Garcia, Rodolfo, 24",May 10,1969,Maplas,Philippines,2,11,,[31]
